[
{
	"featureType": "admin",
	"stylers": {
	"color": "#F6F6F6"}
},
{
	"featureType": "road",
	"stylers": {
	"color": "#c1c8d9",
	"outline-color": "#F6F6F6"}
},
 {
  "featureType": "building.bld_residental_0",
  "stylers": {
	"opacity": 0.75,
	"color": "#E8E8E8"}
 },
{
	"featureType": "building.bld_residental_3D_0",
	"stylers": {
	"opacity": 0.75,
	"color": "#E8E8E8"}
 },
 {
"featureType": "building.bld_industrial_0",
"stylers": {
"opacity": 0.75,
"color": "#E8E8E8"}
 },
 {
"featureType": "building.bld_industrial_3D_0",
"stylers": {
"opacity": 0.75,
"color": "#E8E8E8"}
 },
{
	"featureType": "building.bld_stroy_0",
	"stylers": {
	"opacity": 0.75,
	"color": "#E8E8E8"}
},
{
	"featureType": "building.bld_stroy_3D",
	"stylers": {
	"opacity": 0.75,
	"color": "#E8E8E8"}
},
{
	"featureType": "building.deserted",
	"stylers": {
	"opacity": 0.75,
	"color": "#E8E8E8"}
 },  
{
	"featureType": "building.sport",
	"stylers": {
	"color": "#E8E8E8"}
},
{
	"featureType": "fence",
	"stylers": {
	"opacity": 0.75,
	"color": "#E8E8E8"}
 },
{	
	"featureType": "label.road.local",
  "stylers": {
	"color": "#575F6A",
	"outline-color": "#FFFFFF"}
},
{
	"featureType": "label.road.highway",
  "stylers": {
	"color": "#575F6A",
	"outline-color": "#FFFFFF"}
},
{
	"featureType": "METRO.label",
  "stylers": {
	"color": "#575F6A",
	"outline-color": "#FFFFFF"}
},
{
	"featureType": "label.admin.locality",
	"stylers": {
	"color": "#575F6A",
	"outline-color": "#FFFFFF"}
},
{
	"featureType": "label.relief",
	"stylers": {
	"color": "#575F6A",
	"outline-color": "#FFFFFF"}
},
{
	"featureType": "label.urban-area",
	"stylers": {
	"color": "#575F6A",
	"outline-color": "#FFFFFF"}
},
{
	"featureType": "label.building",
	"stylers": {
	"color": "#8F8D8D",
	"outline-color": "#FFFFFF"}
},
 {
	"featureType": "hydro",
	"stylers": {
	"color": "#BED5E2"}
},
{
	"featureType": "vegetation",
	"stylers": {
	"color": "#D5E7BC"}
 },
{
	"featureType": "urban-area.cemetery",
	"stylers": {
	"color": "#D0E5C2"}
},
{
	"featureType": "urban-area.animalpark",
	"stylers": {
	"color": "#D0E5C2"}
},
{
	"featureType": "urban-area.bridge",
	"stylers": {
	"color": "#F6F6F6"}
},
{
	"featureType": "urban-area",
	"stylers": {
	"color" : "#F6F6F6" }
},
{
	"featureType": "building_number.adress_0",
	"zooms": "16-18",
	"stylers": {
	"visibility": "off"}
},
{
	"featureType": "nonauto.road.funicular-line_0",
	"zooms": "16-18",
	"stylers": {
	"opacity": 0,
	"visibility": "off"}
},
{
	"featureType": "nonauto.road.stairs_0",
	"zooms": "16-18",
	"stylers": {
	"opacity": 0,
	"visibility": "off"}
},
{
	"featureType": "road.class7_0",
	"zooms": "14-18",
	"stylers": {
	"scale": 0.5
	}
},
{
	"featureType": "road.class8_0",
	"zooms": "14-18",
	"stylers": {
	"scale": 0.5
	}
},
{
	"featureType": "road.class7_0",
	"zooms": "14-18",
	"stylers": {
	"scale": 0.5
	}
},
{
	"featureType": "road.class10_park_0",
	"zooms": "16-18",
	"stylers": {
	"visibility": "off"}
},
{
	"featureType": "label.transport.station.metro",
	"zooms": "13",  
	"stylers": {
	"visibility": "off"}
},
{
	"featureType": "place_label.district_0",
	"stylers": {
	"visibility": "off"}
},
{
	"featureType": "label.urban.cemetery",
	"stylers": {
	"visibility": "off"}
 },
{
	"featureType": "label.transport.transport_p",
	"zooms": "0-13",
	"stylers": {
	"visibility": "off"}
},
{
	"featureType": "label.transport.station.bus",
			"stylers": {
				"lightness": 0.1,
				"scale": 0.9,
				"saturation": -1}
},
{
	"featureType": "poi.navi.fuel_station_14-20",
	"zooms": "13-19",
	"stylers": {
	"visibility": "on"}
},
{
	"featureType": "label.poi.navi",
	"zooms": "13-19",
	"stylers": {
	"visibility": "on"}
},
 {
			"featureType": "poi",
			"zooms": "14-20",
			"stylers": {
				"lightness": 0.1,
				"scale": 0.9,
				"saturation": -1
		}
 },
{
	"featureType": "label.transport.station.waterway",
	"stylers": {
	"scale": 0.7}
},
{
	"featureType": "transport.line",
 "stylers": {
 "visibility": "off"}
},
 {
	"featureType": "nonauto.road.tram_0",
	"zooms": "0-17",
	"stylers": {
		"visibility": "off"
		}
},
{
	"featureType": "nonauto.road.railway_0",
	"zooms": "0-13",
	"stylers": {
	"visibility": "off"}
}
]